{
  "photos": {
    "page": 1,
    "pages": 28063,
    "perpage": 10,
    "total": 280626,
    "photo": [
      {
        "id": "15317528089",
        "owner": "21692577@N02",
        "secret": "b124ffd236",
        "server": "5603",
        "farm": 6,
        "title": "Nature",
        "ispublic": 1,
        "isfriend": 0,
        "isfamily": 0,
        "ownername": "Danny VB",
        "views": "712561",
        "url_q": "https://live.staticflickr.com/5603/15317528089_b124ffd236_q.jpg",
        "height_q": 150,
        "width_q": 150,
        "url_h": "https://live.staticflickr.com/5603/15317528089_19892e3a83_h.jpg",
        "height_h": 990,
        "width_h": 1600
      },
      {
        "id": "25978996034",
        "owner": "141378462@N06",
        "secret": "4d049d33aa",
        "server": "1466",
        "farm": 2,
        "title": "nature",
        "ispublic": 1,
        "isfriend": 0,
        "isfamily": 0,
        "ownername": "materona",
        "views": "227430",
        "url_q": "https://live.staticflickr.com/1466/25978996034_4d049d33aa_q.jpg",
        "height_q": 150,
        "width_q": 150
      },
      {
        "id": "7293219226",
        "owner": "36587311@N08",
        "secret": "6e36693123",
        "server": "7093",
        "farm": 8,
        "title": "nature",
        "ispublic": 1,
        "isfriend": 0,
        "isfamily": 0,
        "ownername": "►CubaGallery",
        "views": "555293",
        "url_q": "https://live.staticflickr.com/7093/7293219226_6e36693123_q.jpg",
        "height_q": 150,
        "width_q": 150
      },
      {
        "id": "3874078574",
        "owner": "36587311@N08",
        "secret": "3eb36ccfd9",
        "server": "2644",
        "farm": 3,
        "title": "nature",
        "ispublic": 1,
        "isfriend": 0,
        "isfamily": 0,
        "ownername": "►CubaGallery",
        "views": "612748",
        "url_q": "https://live.staticflickr.com/2644/3874078574_3eb36ccfd9_q.jpg",
        "height_q": 150,
        "width_q": 150
      },
      {
        "id": "13238553944",
        "owner": "36587311@N08",
        "secret": "1c6c241732",
        "server": "3771",
        "farm": 4,
        "title": "nature",
        "ispublic": 1,
        "isfriend": 0,
        "isfamily": 0,
        "ownername": "►CubaGallery",
        "views": "458534",
        "url_q": "https://live.staticflickr.com/3771/13238553944_1c6c241732_q.jpg",
        "height_q": 150,
        "width_q": 150
      },
      {
        "id": "7247943540",
        "owner": "36587311@N08",
        "secret": "a559f45d50",
        "server": "7219",
        "farm": 8,
        "title": "nature",
        "ispublic": 1,
        "isfriend": 0,
        "isfamily": 0,
        "ownername": "►CubaGallery",
        "views": "446568",
        "url_q": "https://live.staticflickr.com/7219/7247943540_a559f45d50_q.jpg",
        "height_q": 150,
        "width_q": 150
      },
      {
        "id": "32288461045",
        "owner": "73422502@N08",
        "secret": "61d8dfffb4",
        "server": "542",
        "farm": 1,
        "title": "Nature",
        "ispublic": 1,
        "isfriend": 0,
        "isfamily": 0,
        "ownername": "Zeeyolq Photography",
        "views": "413307",
        "url_q": "https://live.staticflickr.com/542/32288461045_61d8dfffb4_q.jpg",
        "height_q": 150,
        "width_q": 150,
        "url_h": "https://live.staticflickr.com/542/32288461045_dd1304ddbd_h.jpg",
        "height_h": 1067,
        "width_h": 1600
      },
      {
        "id": "12026256495",
        "owner": "36587311@N08",
        "secret": "3bbf270693",
        "server": "5534",
        "farm": 6,
        "title": "nature",
        "ispublic": 1,
        "isfriend": 0,
        "isfamily": 0,
        "ownername": "►CubaGallery",
        "views": "276269",
        "url_q": "https://live.staticflickr.com/5534/12026256495_3bbf270693_q.jpg",
        "height_q": 150,
        "width_q": 150
      },
      {
        "id": "9549970139",
        "owner": "69148745@N02",
        "secret": "e263468b67",
        "server": "5541",
        "farm": 6,
        "title": "nature",
        "ispublic": 1,
        "isfriend": 0,
        "isfamily": 0,
        "ownername": "land[e]scape",
        "views": "123707",
        "url_q": "https://live.staticflickr.com/5541/9549970139_e263468b67_q.jpg",
        "height_q": 150,
        "width_q": 150,
        "url_h": "https://live.staticflickr.com/5541/9549970139_f74190556a_h.jpg",
        "height_h": 900,
        "width_h": 1600
      },
      {
        "id": "14772879997",
        "owner": "80226011@N06",
        "secret": "645df76b02",
        "server": "5562",
        "farm": 6,
        "title": "nature",
        "ispublic": 1,
        "isfriend": 0,
        "isfamily": 0,
        "ownername": "Blueocean64",
        "views": "258251",
        "url_q": "https://live.staticflickr.com/5562/14772879997_645df76b02_q.jpg",
        "height_q": 150,
        "width_q": 150,
        "url_h": "https://live.staticflickr.com/5562/14772879997_e123543219_h.jpg",
        "height_h": 900,
        "width_h": 1600
      }
    ]
  },
  "stat": "ok"
}
